12BMIU
12BMIU
12C120
12C120
12C120
12C120
12C120
12C120
12C50N
12C50N
12C50N
12D70
12D70
12D70
12D70
12HD120
12HD120
12HD120
12HD120
12HD120
12HD300
12HD300
12HD300
12HD70
12HD70
12HD70
12HD90
12HD90
12HD90
12MIU
12MIU
12MIU
12S50
12S50
12S50
12S50
12S50
12SD90
12SD90
12SD90
12SD90
12SD90
12SD90
12SD90
12SD90
12SD90
12Z70
12Z70
12Z70
12Z70
12Z70
2_ctkm_trong cau_chao
2_ctkm_trong cau_chao
2_ctkm_trong cau_chao
2_ctkm_trong cau_chao
2_ctkm_trong cau_chao
2_ctkm_trong cau_chao
2_ctkm_trong cau_chao
2_ctkm_trong cau_chao
2_ctkm_trong cau_chao
2_ctkm_trong cau_chao
2_ctkm_trong cau_chao
2_ctkm_trong cau_chao
2_ctkm_trong cau_chao
2_ctkm_trong cau_chao
2_ctkm_trong cau_chao
21G
21G
21G
21G
21G
21G
21G
21G
21G
24G
24G
24G
24G
24G
24G
24G
24G
24G
2S50
2S50
2S50
2S50
2S50
2S50
2S50
2S50
2S50
2S50
3C50N
3C50N
3C50N
3D70
3D70
3D70
3D70
3D70
3D70
3D70
3D70
3HD70
3HD70
3HD70
3S50
3S50
3S50
3S50
3S50
3SD90
3SD90
3SD90
3SD90
3SD90
3SD90
3SD90
3SD90
3SD90
3Z70
3Z70
3Z70
3Z70
3Z70
6C120
6C120
6C120
6C120
6C120
6C120
6C120
6C120
6C120
6C50N
6C50N
6C50N
6HD120
6HD120
6HD120
6HD200
6HD200
6HD200
6HD300
6HD300
6HD300
6HD70
6HD70
6HD70
6HD70
6HD70
6HD70
6HD70
6HD70
6HD90
6HD90
6HD90
6MIU
6MIU
6MIU
6S50
6S50
6S50
6S50
6S50
6S50
6SD90
6SD90
6SD90
6SD90
6SD90
6SD90
6SD90
6SD90
6SD90
6SD90
6SD90
6Z70
6Z70
6Z70
6Z70
8COM
8COM
8COM
8COM
8COM
8COM
8DMAX
8DMAX
8E
8E
8E
8E
8E
8E
8E
8E
8E
8E
8E
8E
8E
8E
8E
8NCT
8NCT
8NCT
8NCT
8NCT
8NCT
8NCT
8NCT
8NCT
BL5GT
BL5GT
BL5GT
BL5GT
BL5GT
BL5GT
BL5GT
BLUEZONE
BLUEZONE
BLUEZONE
BLUEZONE
BLUEZONE
BLUEZONE
BLUEZONE
BLUEZONE
BLUEZONE
BLUEZONE
BLZ5
BLZ5
BLZ5
BLZ5
BLZ5
BLZ5
BMIU
BMIU
BMIU
C120
C120
C120
C120
C120
C120
C120
C120
C120
C120
C120
C120
C120
C120
C120
C120
C120
C120
C120
C120
C120
C120
C120
C120
C120
C120
C120
C120
C120
C120
C120N
C120N
C120N
C120N
C120N
C120N
C120N
C120N
C120N
C120N
C120N
C120N
C120N
C120N
C120N
C120N
C120N
C120N
C120N
C120N
C120N
C120N
C19
C19
C190
C200N
C200N
C200N
C200N
C200N
C200N
C29
C29
C3
C3
C39
C39
C390
C390
C390
C390
C49
C49
C490
C490
C490
C490
C50N
C50N
C50N
C50N
C50N
C9
C9
C9
C9
C9
C9
C9
C9
C9
C9
C9
C90
C90
C90
chao_hoi
chao_hoi
chao_hoi
chao_hoi
chao_hoi
chao_hoi
chao_hoi
chao_hoi
chao_hoi
chao_hoi
chao_hoi
chao_hoi
chao_hoi
chao_hoi
chao_hoi
chao_hoi
chao_hoi
chao_hoi
chao_hoi
chao_hoi
chao_hoi
chao_hoi
chao_hoi
chao_hoi
chao_hoi
chao_hoi
chao_hoi
chao_hoi
chao_hoi
chao_hoi
chao_hoi
chao_hoi
chao_hoi
chao_hoi
chao_hoi
chao_hoi
chao_hoi
chao_hoi
chao_hoi
chao_hoi
chao_hoi
chao_hoi
chao_hoi
chao_hoi
chao_hoi
chao_hoi
chao_hoi
chao_hoi
chao_hoi
chao_hoi
chao_hoi
chao_hoi
chao_hoi
chao_hoi
chao_hoi
chao_hoi
chao_hoi
chao_hoi
chao_hoi
chao_hoi
chao_hoi
chao_hoi
chao_hoi
chao_hoi
chao_hoi
chao_ket_thuc
chao_ket_thuc
chao_ket_thuc
chao_ket_thuc
chao_ket_thuc
chao_ket_thuc
chao_ket_thuc
chao_ket_thuc
chao_ket_thuc
chao_ket_thuc
chao_ket_thuc
chao_ket_thuc
chao_ket_thuc
chao_ket_thuc
chao_ket_thuc
chao_ket_thuc
chao_ket_thuc
chao_ket_thuc
chao_ket_thuc
chao_ket_thuc
chao_ket_thuc
chao_ket_thuc
chao_ket_thuc
chao_ket_thuc
chao_ket_thuc
chao_ket_thuc
chao_ket_thuc
chao_ket_thuc
chao_ket_thuc
chao_ket_thuc
chao_ket_thuc
chao_ket_thuc
chao_ket_thuc
chao_ket_thuc
chao_ket_thuc
chao_ket_thuc
chao_ket_thuc
chao_ket_thuc
chao_ket_thuc
chao_ket_thuc
chao_ket_thuc
chao_ket_thuc
chao_ket_thuc
chao_ket_thuc
chao_ket_thuc
chao_ket_thuc
chao_ket_thuc
chao_ket_thuc
chao_ket_thuc
chao_ket_thuc
chao_ket_thuc
chao_ket_thuc
chao_ket_thuc
chao_ket_thuc
chao_ket_thuc
chao_ket_thuc
chao_ket_thuc
chao_ket_thuc
chao_ket_thuc
chao_ket_thuc
chao_ket_thuc
chao_ket_thuc
chao_ket_thuc
chao_ket_thuc
chao_ket_thuc
chao_ket_thuc
chao_ket_thuc
chao_ket_thuc
chao_ket_thuc
chao_ket_thuc
chao_ket_thuc
chao_ket_thuc
chao_ket_thuc
chao_ket_thuc
chao_ket_thuc
chao_ket_thuc
chao_ket_thuc
chao_ket_thuc
chao_ket_thuc
chao_ket_thuc
chao_ket_thuc
chao_ket_thuc
chi_tiet_cuoc
chi_tiet_cuoc
chi_tiet_cuoc
chi_tiet_cuoc
chi_tiet_cuoc
chi_tiet_cuoc
chi_tiet_cuoc
chi_tiet_cuoc
chuc_buoi_toi
chuc_buoi_toi
chuc_ca_ngay
chuc_ca_ngay
chuc_ca_ngay
chuc_ca_ngay
CK100
CK100
CK100
CK30
CK30
CK30
CK30
CK50
CK50
CK70
CK70
CM99
CM99
CM99
CM99
CM99
CM99
CM99
D10
D10
D10
D10
D10
D10
D15
D15
D15
D15
D15
D15
D15
D15
D15
D15
D15
D15
D30
D30
D30
D30
D30
D30
D30
D30
D30
D30
D30
D30
D30
D5
D5
D5
D5
D5
D5
D7
D7
D7
D7
D7
D70
D70
D70
D70
D70
D70
D90
D90
D90
D90
D90
dang_ky_esim
dang_ky_esim
dang_ky_esim
dang_ky_esim
dang_ky_esim
dang_ky_esim
dang_ky_esim
dang_ky_nhan_TBC_qua_mail
dang_ky_nhan_TBC_qua_mail
dang_ky_nhan_TBC_qua_mail
esim
esim
esim
esim
esim
F90N
F90N
F90N
F90N
F90N
F90N
F90N
F90N
F90N
Funring
Funring
Funring
Funring
Funring
Funring
Funring
Funring
G1
G1
G1
G1
G1
G1
G1
G1
G1
G1
G1
G1
G2
G2
G2
G2
G2
G2
G2
G2
G2
G2
G60
G60
G60
G60
G60
G60
G60
G80
G80
G80
G80
G80
G80
G80
G80
G80
G80
G80
G80
G80
G90
G90
G90
G90
GY
GY
GY
GY
GYM1
GYM1
GYM1
GYM1
hd_den_cua_hang_mobifone
hd_den_cua_hang_mobifone
hd_den_cua_hang_mobifone
hd_den_cua_hang_mobifone
hd_den_cua_hang_mobifone
hd_den_cua_hang_mobifone
hd_den_cua_hang_mobifone
hd_den_cua_hang_mobifone
hd_den_cua_hang_mobifone
hd_den_cua_hang_mobifone
hd_den_cua_hang_mobifone
hd_den_cua_hang_mobifone
hd_den_cua_hang_mobifone
hd_den_cua_hang_mobifone
hd_kiem_tra_tttb_tra_trc
hd_kiem_tra_tttb_tra_trc
hd_kiem_tra_tttb_tra_trc
hd_kiem_tra_tttb_tra_trc
hd_kiem_tra_tttb_tra_trc
hd_kiem_tra_tttb_tra_trc
hd_kiem_tra_tttb_tra_trc
hd_kiem_tra_tttb_tra_trc
hd_kiem_tra_tttb_tra_trc
hd_kiem_tra_tttb_tra_trc
hd_kiem_tra_tttb_tra_trc
hd_kiem_tra_tttb_tra_trc
hd_kiem_tra_tttb_tra_trc
hd_kiem_tra_tttb_tra_trc
hd_kiem_tra_tttb_tra_trc
hd_kiem_tra_tttb_tra_trc
hd_kiem_tra_tttb_tra_trc
HD200
HD200
HD200
HD200
HD300
HD400
HD400
HD400
HD400
HD500
HD500
HD500
HD70
HD70
HD70
HD70
HD70
HD90
HD90
HD90
HD90
HD90
HD90
HD90
HD90
HD90
HD90
HDP100
HDP100
HDP100
HDP100
HDP100
HDP100
HDP120
HDP120
HDP120
HDP120
HDP120
HDP120
HDP200
HDP200
HDP200
HDP200
HDP200
HDP200
HDP300
HDP300
HDP300
HDP300
HDP300
HDP300
HDP600
HDP600
HDP600
HDP600
HDP600
HDP600
HDP600
HDP70
HDP70
HDP70
HDP70
HDP70
HDP70
HDP70
HDP70
HDY
HDY
HDY
HDY
HDY
HDY
HDY
HDY
HDY
hoa_mang_moi
hoa_mang_moi
hoa_mang_moi
hoa_mang_moi
hoa_mang_moi
hoa_mang_moi
hoa_mang_moi
hoa_mang_moi
hoa_mang_moi
hoa_mang_moi
hoa_mang_moi
hoa_mang_moi
hoa_mang_moi
hoa_mang_moi
hoa_mang_moi
hoa_mang_moi
hoa_mang_moi
hoa_mang_moi
hoa_mang_moi
hoa_mang_moi
hoa_mang_moi
hoa_mang_moi
hoa_mang_moi
hoa_mang_moi
hoa_mang_moi
hoa_mang_moi
hoa_mang_moi
hoa_mang_moi
hoa_mang_moi
hoa_mang_moi
hoa_mang_moi
hoa_mang_moi
hoa_mang_moi
hoa_mang_moi
hoa_mang_moi
hoa_mang_moi
hoa_mang_moi
hoa_mang_moi
hoa_mang_moi
hoa_mang_moi
hoa_mang_moi
hoa_mang_moi
hoa_mang_moi
hoa_mang_moi
hoa_mang_moi
hoa_mang_moi
hoa_mang_moi
hoa_mang_moi
hoa_mang_moi
hoa_mang_moi
hoa_mang_moi
hoa_mang_moi
hoa_mang_moi
hoa_mang_moi
hoa_mang_moi
hoa_mang_moi
hoa_mang_moi
hoa_mang_moi
hoa_mang_moi
hoa_mang_moi
hoa_mang_moi
hoa_mang_moi
hoi_chatbot_la_gi
hoi_chatbot_la_gi
hoi_chatbot_la_gi
hoi_chatbot_la_gi
hoi_chatbot_la_gi
hoi_chatbot_la_gi
hoi_chatbot_la_gi
hoi_chatbot_la_gi
hoi_chatbot_la_gi
hoi_chatbot_la_gi
hoi_chatbot_la_gi
hoi_chatbot_la_gi
hoi_goi_khac
hoi_goi_khac
hoi_goi_khac
hoi_goi_khac
hoi_goi_khac
hoi_goi_khac
hoi_goi_khac
hoi_goi_khac
hoi_goi_khac
hoi_goi_khac
hoi_goi_khac
hoi_goi_khac
hoi_goi_khac
hoi_goi_khac
hoi_goi_khac
hoi_goi_khac
hoi_goi_khac
hoi_goi_khac
hoi_goi_khac
hoi_goi_khac
hoi_goi_khac
hoi_goi_khac
hoi_goi_khac
hoi_goi_khac
hoi_goi_khac
hoi_goi_khac
hoi_goi_khac
hoi_goi_khac
hoi_goi_khac
hoi_goi_khac
hoi_goi_khac
hoi_goi_khac
hoi_goi_khac
hoi_goi_khac
hoi_goi_khac
hoi_goi_khac
hoi_goi_khac
hoi_goi_khac
hoi_goi_khac
hoi_goi_khac
hoi_goi_khac
hoi_goi_khac
hoi_goi_khac
hoi_goi_khac
hoi_goi_khac
hoi_goi_khac
hoi_goi_khac
hoi_goi_khac
hoi_goi_khac
hoi_goi_khac
hoi_goi_khac
hoi_goi_khac
hoi_goi_khac
hoi_goi_khac
hoi_goi_khac
hoi_goi_khac
hoi_goi_khac
hoi_goi_khac
hoi_goi_khac
hoi_goi_khac
hoi_goi_khac
hoi_goi_khac
hoi_goi_khac
hoi_goi_khac
hoi_goi_khac
hoi_goi_khac
hoi_goi_khac
hoi_goi_khac
hoi_goi_khac
hoi_goi_khac
hoi_goi_khac
hoi_goi_khac
hoi_goi_khac
hoi_goi_khac
hoi_goi_khac
hoi_goi_khac
hoi_goi_khac
hoi_goi_khac
hoi_goi_khac
hoi_goi_khac
hoi_goi_khac
hoi_goi_khac
hoi_goi_khac
hoi_goi_khac
hoi_goi_khac
hoi_goi_khac
hoi_goi_khac
hoi_goi_khac
hoi_goi_khac
hoi_goi_khac
hoi_goi_khac
hoi_goi_khac
hoi_goi_khac
hoi_goi_khac
hoi_goi_khac
hoi_goi_khac
hoi_goi_khac
hoi_goi_khac
hoi_goi_khac
hoi_goi_khac
hoi_goi_khac
hoi_goi_khac
hoi_goi_khac
hoi_goi_khac
hoi_goi_khac
hoi_goi_khac
hoi_goi_khac
hoi_goi_khac
HSV25
HSV25
HSV25
HSV25
HSV25
HSV25
HSV25
HSV25
HSV25
HSV25
HSV50
HSV50
HSV50
HSV50
HSV50
HSV50
HSV50
HSV50
HSV50
HSV50
HSV50
huy_goi_cuoc
huy_goi_cuoc
huy_goi_cuoc
huy_goi_cuoc
huy_goi_cuoc
huy_goi_cuoc
huy_goi_cuoc
huy_goi_cuoc
huy_goi_cuoc
huy_goi_cuoc
huy_goi_cuoc
huy_goi_cuoc
huy_goi_cuoc
huy_goi_cuoc
huy_goi_cuoc
huy_goi_cuoc
huy_goi_cuoc
huy_goi_cuoc
huy_goi_cuoc
huy_goi_cuoc
huy_goi_cuoc
huy_goi_cuoc
huy_goi_cuoc
huy_goi_cuoc
huy_goi_cuoc
huy_goi_cuoc
huy_goi_cuoc
huy_goi_cuoc
huy_goi_cuoc
huy_goi_cuoc
huy_goi_cuoc
huy_goi_cuoc
huy_goi_cuoc
huy_goi_cuoc
huy_goi_cuoc
huy_goi_cuoc
huy_goi_cuoc
huy_goi_cuoc
huy_goi_cuoc
huy_goi_cuoc
huy_goi_cuoc
huy_goi_cuoc
huy_goi_cuoc
huy_goi_cuoc
huy_goi_cuoc
huy_goi_cuoc
K100
K100
K100
K100
K100
K100
K100
K100
K100
K100
K150
K150
K150
K150
K150
K150
K150
K150
K150
K150
K150
K150
K150
K150
K150
K150
K150
K150
K150
K200
K200
K200
K200
K200
K200
K200
K200
K200
K250
K250
K250
K250
K350
K350
K350
K350
K450
K450
K450
K450
K50
K50
K50
K50
K50
K50
K50
K50
K550
K550
K550
K550
K9
K9
K9
K9
K9
K9
K9
K9
K90
K90
K90
K90
K90
K90
K90
ket_noi_dai_lau
ket_noi_dai_lau
ket_noi_dai_lau
ket_noi_dai_lau
ket_noi_dai_lau
ket_noi_dai_lau
ket_noi_dai_lau
ket_noi_dai_lau
ket_noi_dai_lau
ket_noi_dai_lau
ket_noi_dai_lau
kh_quan_tam_kenh
khuyen_mai_nap_tien
khuyen_mai_nap_tien
khuyen_mai_nap_tien
khuyen_mai_nap_tien
khuyen_mai_nap_tien
khuyen_mai_nap_tien
khuyen_mai_nap_tien
khuyen_mai_nap_tien
khuyen_mai_nap_tien
khuyen_mai_nap_tien
khuyen_mai_nap_tien
khuyen_mai_nap_tien
khuyen_mai_nap_tien
khuyen_mai_nap_tien
khuyen_mai_nap_tien
khuyen_mai_nap_tien
khuyen_mai_nap_tien
khuyen_mai_nap_tien
khuyen_mai_nap_tien
khuyen_mai_nap_tien
khuyen_mai_nap_tien
khuyen_mai_nap_tien
khuyen_mai_nap_tien
khuyen_mai_nap_tien
khuyen_mai_nap_tien
khuyen_mai_nap_tien
khuyen_mai_nap_tien
khuyen_mai_nap_tien
khuyen_mai_nap_tien
khuyen_mai_nap_tien
khuyen_mai_nap_tien
khuyen_mai_nap_tien
khuyen_mai_nap_tien
khuyen_mai_nap_tien
khuyen_mai_nap_tien
khuyen_mai_nap_tien
khuyen_mai_nap_tien
khuyen_mai_nap_tien
khuyen_mai_nap_tien
khuyen_mai_nap_tien
khuyen_mai_nap_tien
kiem_tra_dich_vu_goi_cuoc_dang_sd
kiem_tra_dich_vu_goi_cuoc_dang_sd
kiem_tra_dich_vu_goi_cuoc_dang_sd
kiem_tra_dich_vu_goi_cuoc_dang_sd
kiem_tra_dich_vu_goi_cuoc_dang_sd
kiem_tra_dich_vu_goi_cuoc_dang_sd
kiem_tra_dich_vu_goi_cuoc_dang_sd
kiem_tra_dich_vu_goi_cuoc_dang_sd
kiem_tra_dich_vu_goi_cuoc_dang_sd
kiem_tra_dich_vu_goi_cuoc_dang_sd
kiem_tra_dich_vu_goi_cuoc_dang_sd
kiem_tra_dich_vu_goi_cuoc_dang_sd
kiem_tra_dich_vu_goi_cuoc_dang_sd
kiem_tra_dich_vu_goi_cuoc_dang_sd
kiem_tra_dung_luong_goi_data
kiem_tra_dung_luong_goi_data
kiem_tra_dung_luong_goi_data
kiem_tra_dung_luong_goi_data
kiem_tra_dung_luong_goi_data
kiem_tra_dung_luong_goi_data
kiem_tra_dung_luong_goi_data
kiem_tra_dung_luong_goi_data
kiem_tra_dung_luong_goi_data
kiem_tra_dung_luong_goi_data
kiem_tra_dung_luong_goi_data
kiem_tra_dung_luong_goi_data
kiem_tra_tai_khoan
kiem_tra_tai_khoan
kiem_tra_tai_khoan
kiem_tra_tai_khoan
kiem_tra_tai_khoan
kiem_tra_tai_khoan
kiem_tra_tai_khoan
link_web_funring
link_web_funring
link_web_funring
link_web_funring
link_web_funring
M10
M10
M10
M120
M120
M120
M200
M200
M25
M25
M25
M2U
M2U
M2U
M2U
M2U
M2U
M2U
M50
M50
M50
M70
M70
M70
M79
M79
M79
M79
M79
M79
M79
M79
M79
M79
M79
M90
M90
M90
MC149
MC149
MC149
MC149
MC149
MC149
MC149
MC149
MC149
MC149
MC149
MC149
MC149
MC149
MC90
MC90
MC90
MC90
MC90
MC90
MC90
MC90
MC90
MC90
MC90
MC90
MC90
MC90
MC90
MCA
MCA
MCA
MCA
MCA
MCA
MCA
MF149
MF149
MF149
MF149
MF149
MF149
MF149
MF149
MF149
MF149
MF149
MF149
MF150
MF150
MF150
MF150
MF150
MF150
MF150
MF150
MF150
MF150
MF150
MF150
MF150
MF150
MF150
MF150
MF150
MF150
MF150
MF150
MF150
MF150
MF150
MF150
MF199
MF199
MF199
MF199
MF199
MF199
MF199
MF199
MF199
MF199
MF199
MF199
MF199
MF199
MF299
MF299
MF299
MF299
MF299
MF299
MF299
MF299
MF299
MF299
MF399
MF399
MF399
MF399
MF399
MF499
MF499
MF499
MF499
MF499
MF4IP
MF4IP
MF4IP
MF4IP
MF599
MF599
MF599
MF599
MF599
MF799
MF799
MF799
MF799
MF799
MF99
MF99
MF99
MF99
MF99
MF99
MF99
MF99
MF99
MF99
MF99
MF99
MF99
MF99
MF99
MF99
MF99
MF999
MF999
MF999
MF999
MF999
mfamily
mfamily
mfamily
mfamily
mfamily
mfamily
mfamily
mfamily
mfamily
mfamily
mfamily
mfamily
mfamily
mfamily
mfamily
mfamily
mfamily
mfamily
MIU
MIU
MIU
MIU90
MIU90
MIU90
mnp_den_mobifone
mnp_den_mobifone
mnp_den_mobifone
mnp_den_mobifone
mnp_den_mobifone
mobihome
mobihome
mobihome
mobihome
mobihome
mobihome
mobihome
mobihome
mobihome
mobihome
mobihome
mobihome
mobihome
mobihome
mobihome
mobihome
mobihome
mobihome
mobihome
mobihome
mobihome
mobihome
mobihome
mobihome
Mua_may
Mua_may
Mua_may
Mua_may
Mua_may
Mua_may
Mua_may
Mua_may
Mua_may
Mua_may
Mua_may
Mua_may
Mua_may
Mua_may
Mua_may
Mua_may
Mua_may
Mua_may
Mua_may
Mua_may
pa_luot_web_cham
pa_luot_web_cham
pa_luot_web_cham
pa_luot_web_cham
pa_luot_web_cham
pa_luot_web_cham
pa_luot_web_cham
pa_luot_web_cham
phan_anh_song
phan_anh_song
phan_anh_song
phan_anh_song
phan_anh_song
phan_anh_song
phan_anh_song
phan_anh_song
phan_anh_song
phan_anh_song
phan_anh_song
phan_anh_song
phan_anh_song
phan_anh_song
phan_anh_song
phan_anh_song
phan_anh_song
phan_anh_song
phan_anh_song
phan_anh_song
phan_anh_song
phan_anh_song
phan_anh_song
phan_anh_song
phan_anh_song
phan_anh_song
phan_anh_song
phan_anh_song
phan_anh_song
phan_anh_song
phan_anh_song
phan_anh_song
phan_anh_song
phan_anh_song
phan_anh_song
phan_anh_song
phan_anh_song
phan_anh_song
phan_anh_song
phan_anh_song
phan_anh_song
PHIM30
PHIM30
PHIM30
PHIM30
PHIM30
PHIM30
QN50
QN50
QN50
QN50
S10P
S10P
S10P
S20P
S20P
S20P
S30P
S30P
S30P
S30P
S30P
S30P
S30P
S30P
S30P
S30P
S30P
S50
S50
S50
S50
S50
S50
S5P
S5P
S5P
SD90
SD90
SD90
SD90
SD90
SD90
SD90
SD90
SD90
SD90
sms_quang_cao_9241
sms_quang_cao_9241
sms_quang_cao_9241
sms_quang_cao_9241
sms_quang_cao_9241
sms_quang_cao_9241
T29
T29
T29
T59
T59
T59
T59
T59
tai_app_my_mobifone
tai_app_my_mobifone
TAMD10
TAMD10
tang_goi_trai_nghiem_data
tang_goi_trai_nghiem_data
thanh_toan_online
thanh_toan_online
thanh_toan_online
thanh_toan_online
thanh_toan_online
thay_sim_4g
thay_sim_4g
thay_sim_4g
thay_sim_4g
thay_sim_4g
thay_sim_4g
thay_sim_4g
thay_sim_4g
thay_sim_4g
thay_sim_4g
thay_sim_4g
thay_sim_4g
thay_sim_4g
thay_sim_4g
thay_sim_4g
thay_sim_4g
thay_sim_4g
thay_sim_4g
thay_sim_4g
thay_sim_4g
thay_sim_4g
thay_sim_4g
thiet_bi_dung_esim
thiet_bi_dung_esim
thiet_bi_dung_esim
thiet_bi_dung_esim
thiet_bi_dung_esim
thiet_bi_dung_esim
thiet_bi_dung_esim
thiet_bi_dung_esim
thoai_qua_ott
thoai_qua_ott
thoai_qua_ott
thoai_qua_ott
thongtin_tuvan_C90
thongtin_tuvan_C90
thongtin_tuvan_C90
thongtin_tuvan_C90
thongtin_tuvan_C90
thongtin_tuvan_C90
thongtin_tuvan_C90
thongtin_tuvan_C90
thongtin_tuvan_C90
thongtin_tuvan_C90
thongtin_tuvan_C90
thongtin_tuvan_C90
thongtin_tuvan_C90
thongtin_tuvan_C90
thongtin_tuvan_C90
thongtin_tuvan_C90
thongtin_tuvan_C90
thongtin_tuvan_C90
thongtin_tuvan_C90N
thongtin_tuvan_C90N
thongtin_tuvan_C90N
thongtin_tuvan_C90N
thongtin_tuvan_C90N
thongtin_tuvan_C90N
thongtin_tuvan_C90N
thongtin_tuvan_C90N
thongtin_tuvan_C90N
thongtin_tuvan_C90N
thongtin_tuvan_C90N
thongtin_tuvan_C90N
thongtin_tuvan_C90N
thongtin_tuvan_C90N
thongtin_tuvan_C90N
thongtin_tuvan_C90N
thongtin_tuvan_C90N
thongtin_tuvan_C90N
TIKTOK1
TIKTOK1
TIKTOK1
TIKTOK30
TIKTOK30
TIKTOK30
TIKTOK7
TIKTOK7
TIKTOK7
TIKTOK90
TIKTOK90
TIKTOK90
TIKTOKVIP
TIKTOKVIP
TIKTOKVIP
TN4G
TN4G
TN4G
TS4G
TS4G
TS4G
TS4G
TS4G
TS4G
TS4G
TS4G
TS4G
tu_van_data_addon
tu_van_data_addon
tu_van_data_addon
tu_van_data_addon
tu_van_data_addon
tu_van_data_addon
tu_van_data_addon
tu_van_data_addon
tu_van_data_addon
tu_van_data_addon
tu_van_data_addon
tu_van_data_addon
tu_van_data_addon
tu_van_goi_combo
tu_van_goi_combo
tu_van_goi_combo
tu_van_goi_combo
tu_van_goi_combo
tu_van_goi_combo
tu_van_goi_combo
tu_van_goi_combo
tu_van_goi_combo
tu_van_goi_combo
tu_van_goi_combo
tu_van_goi_combo
tu_van_goi_combo
tu_van_goi_combo
tu_van_goi_combo
tu_van_goi_combo
tu_van_goi_combo
tu_van_goi_combo
tu_van_goi_combo
tu_van_goi_combo
tu_van_goi_combo
tu_van_goi_combo
tu_van_goi_combo
tu_van_goi_combo
tu_van_goi_combo
tu_van_goi_combo
tu_van_goi_combo
tu_van_goi_combo
tu_van_goi_combo
tu_van_goi_combo
tu_van_goi_combo
tu_van_goi_combo
tu_van_goi_combo
tu_van_goi_combo
tu_van_goi_combo
tu_van_goi_combo
tu_van_goi_combo
tu_van_goi_combo
tu_van_goi_combo
tu_van_goi_combo
tu_van_goi_combo
tu_van_goi_combo
tu_van_goi_combo
tu_van_goi_combo
tu_van_goi_combo
tu_van_goi_combo
tu_van_goi_combo
tu_van_goi_combo
tu_van_goi_combo
tu_van_goi_combo
tu_van_goi_combo
tu_van_goi_combo
tu_van_goi_combo
tu_van_goi_combo
tu_van_goi_combo
tu_van_goi_combo
tu_van_goi_combo
tu_van_goi_combo
tu_van_goi_combo
tu_van_goi_combo
tu_van_goi_combo
tu_van_goi_combo
tu_van_goi_combo
tu_van_goi_combo
tu_van_goi_combo
tu_van_goi_combo
tu_van_goi_combo
tu_van_goi_combo
tu_van_goi_combo
tu_van_goi_combo
tu_van_goi_combo
tu_van_goi_combo
tu_van_goi_combo
tu_van_goi_combo
tu_van_goi_combo
tu_van_goi_combo
tu_van_goi_combo
tu_van_goi_combo
tu_van_goi_data
tu_van_goi_data
tu_van_goi_data
tu_van_goi_data
tu_van_goi_data
tu_van_goi_data
tu_van_goi_data
tu_van_goi_data
tu_van_goi_data
tu_van_goi_data
tu_van_goi_data
tu_van_goi_data
tu_van_goi_data
tu_van_goi_data
tu_van_goi_data
tu_van_goi_data
tu_van_goi_data
tu_van_goi_data
tu_van_goi_data
tu_van_goi_data
tu_van_goi_data
tu_van_goi_data
tu_van_goi_data
tu_van_goi_data
tu_van_goi_data
tu_van_goi_data
tu_van_goi_data
tu_van_goi_data
tu_van_goi_data
tu_van_goi_data
tu_van_goi_data
tu_van_goi_data
tu_van_goi_data
tu_van_goi_data
tu_van_goi_data
tu_van_goi_data
tu_van_goi_data
tu_van_goi_data
tu_van_goi_data
tu_van_goi_data
tu_van_goi_data
tu_van_goi_data
tu_van_goi_data
tu_van_goi_data
tu_van_goi_data
tu_van_goi_data
tu_van_goi_data
tu_van_goi_data
tu_van_goi_data
tu_van_goi_data
tu_van_goi_data
tu_van_goi_data
tu_van_goi_data
tu_van_goi_data
tu_van_goi_data
tu_van_goi_data
tu_van_goi_data
tu_van_goi_data
tu_van_goi_data
tu_van_goi_data
tu_van_goi_data
tu_van_goi_data
tu_van_goi_data
tu_van_goi_data
tu_van_goi_data
tu_van_goi_data
tu_van_goi_data
tu_van_goi_data
tu_van_goi_data
tu_van_goi_data
tu_van_goi_data
tu_van_goi_data
tu_van_goi_data
tu_van_goi_data
tu_van_goi_data
tu_van_goi_data
tu_van_goi_data
tu_van_goi_data
tu_van_goi_data
tu_van_goi_data
tu_van_goi_data
tu_van_goi_data
tu_van_goi_data
tu_van_goi_data
tu_van_goi_data
tu_van_goi_data
tu_van_goi_data
tu_van_goi_data
tu_van_goi_data
tu_van_goi_data
tu_van_goi_data
tu_van_goi_data
tu_van_goi_data
tu_van_goi_data
tu_van_goi_data
tu_van_goi_data
tu_van_goi_data
tu_van_goi_data
tu_van_goi_data
tu_van_goi_data
tu_van_goi_data
tu_van_goi_data
tu_van_goi_data
tu_van_goi_data
tu_van_goi_data
tu_van_goi_data
tu_van_goi_data
tu_van_goi_data
tu_van_goi_data
tu_van_goi_data
tu_van_goi_data
tu_van_goi_data
tu_van_goi_data
tu_van_goi_data
tu_van_goi_data
tu_van_goi_data
tu_van_goi_data
tu_van_goi_data
tu_van_goi_data
tu_van_goi_data
tu_van_goi_data
tu_van_goi_data
tu_van_goi_data
tu_van_goi_data
tu_van_goi_data
tu_van_goi_data
tu_van_goi_data
tu_van_goi_data
tu_van_goi_data
tu_van_goi_data
tu_van_goi_data
tu_van_goi_data
tu_van_goi_data
tu_van_goi_data
tu_van_goi_data
tu_van_goi_data
tu_van_goi_data
tu_van_goi_data
tu_van_goi_data
tu_van_goi_data
tu_van_goi_data
tu_van_goi_data
tu_van_goi_data
tu_van_goi_data
tu_van_goi_data
tu_van_goi_data
tu_van_goi_data
tu_van_goi_data
tu_van_goi_data
tu_van_goi_data
tu_van_goi_data
tu_van_goi_data
tu_van_goi_data
tu_van_goi_data
tu_van_goi_data
tu_van_goi_data
tu_van_goi_data
tu_van_goi_data
tu_van_goi_data
tu_van_goi_data
tu_van_goi_data
tu_van_goi_data
tu_van_goi_data
tu_van_goi_data
tu_van_goi_data
tu_van_goi_data
tu_van_goi_data
tu_van_goi_data
tu_van_goi_data
tu_van_goi_data
tu_van_goi_data
tu_van_goi_data
tu_van_goi_data
tu_van_goi_data
tu_van_goi_data_ngay
tu_van_goi_data_ngay
tu_van_goi_data_ngay
tu_van_goi_data_ngay
tu_van_goi_data_ngay
tu_van_goi_data_ngay
tu_van_goi_data_ngay
tu_van_goi_data_ngay
tu_van_goi_data_ngay
tu_van_goi_data_ngay
tu_van_goi_data_ngay
tu_van_goi_data_ngay
tu_van_goi_data_ngay
tu_van_goi_data_ngay
tu_van_goi_data_ngay
tu_van_goi_data_ngay
tu_van_goi_data_ngay
tu_van_goi_data_ngay
tu_van_goi_data_ngay
tu_van_goi_data_ngay
tu_van_goi_data_ngay
tu_van_goi_khuyen_mai
tu_van_goi_khuyen_mai
tu_van_goi_khuyen_mai
tu_van_goi_khuyen_mai
tu_van_goi_khuyen_mai
tu_van_goi_khuyen_mai
tu_van_goi_khuyen_mai
tu_van_goi_khuyen_mai
tu_van_goi_khuyen_mai
tu_van_goi_khuyen_mai
tu_van_goi_khuyen_mai
tu_van_goi_khuyen_mai
tu_van_goi_khuyen_mai
tu_van_goi_khuyen_mai
tu_van_goi_khuyen_mai
tu_van_goi_khuyen_mai
tu_van_goi_khuyen_mai
tu_van_goi_khuyen_mai
tu_van_goi_khuyen_mai
tu_van_goi_khuyen_mai
tu_van_goi_khuyen_mai
tu_van_goi_khuyen_mai
tu_van_goi_khuyen_mai
tu_van_goi_khuyen_mai
tu_van_goi_khuyen_mai
tu_van_goi_khuyen_mai
tu_van_goi_khuyen_mai
tu_van_goi_khuyen_mai
tu_van_goi_khuyen_mai
tu_van_goi_khuyen_mai
tu_van_goi_khuyen_mai
tu_van_goi_khuyen_mai
tu_van_goi_khuyen_mai
tu_van_goi_khuyen_mai
tu_van_goi_khuyen_mai
tu_van_goi_khuyen_mai
tu_van_goi_khuyen_mai
tu_van_goi_khuyen_mai
tu_van_goi_khuyen_mai
tu_van_goi_khuyen_mai
tu_van_goi_khuyen_mai
tu_van_goi_khuyen_mai
tu_van_goi_khuyen_mai
tu_van_goi_khuyen_mai
tu_van_goi_khuyen_mai
tu_van_goi_khuyen_mai
tu_van_goi_khuyen_mai
tu_van_goi_khuyen_mai
tu_van_goi_khuyen_mai
tu_van_goi_khuyen_mai
tu_van_goi_khuyen_mai
tu_van_goi_khuyen_mai
tu_van_goi_khuyen_mai
tu_van_goi_khuyen_mai
tu_van_goi_khuyen_mai
tu_van_goi_khuyen_mai
tu_van_goi_khuyen_mai
tu_van_goi_khuyen_mai
tu_van_goi_khuyen_mai
tu_van_goi_khuyen_mai
tu_van_goi_khuyen_mai
tu_van_goi_khuyen_mai
tu_van_goi_khuyen_mai
tu_van_goi_khuyen_mai
tu_van_goi_khuyen_mai
tu_van_goi_khuyen_mai
tu_van_goi_khuyen_mai
tu_van_goi_khuyen_mai
tu_van_goi_khuyen_mai
tu_van_goi_khuyen_mai
tu_van_goi_khuyen_mai
tu_van_goi_khuyen_mai
tu_van_goi_khuyen_mai
tu_van_goi_khuyen_mai
tu_van_goi_khuyen_mai
tu_van_goi_khuyen_mai
tu_van_goi_khuyen_mai
tu_van_goi_khuyen_mai
tu_van_goi_khuyen_mai
tu_van_goi_khuyen_mai
tu_van_goi_khuyen_mai
tu_van_goi_khuyen_mai
tu_van_goi_khuyen_mai
tu_van_goi_khuyen_mai
tu_van_goi_khuyen_mai
tu_van_goi_khuyen_mai
tu_van_goi_khuyen_mai
tu_van_goi_khuyen_mai
tu_van_goi_khuyen_mai
tu_van_goi_khuyen_mai
tu_van_goi_khuyen_mai
tu_van_goi_khuyen_mai
tu_van_goi_khuyen_mai
tu_van_goi_khuyen_mai
tu_van_goi_khuyen_mai
tu_van_goi_khuyen_mai
tu_van_goi_khuyen_mai
tu_van_goi_khuyen_mai
tu_van_goi_khuyen_mai
tu_van_goi_khuyen_mai
tu_van_goi_khuyen_mai
tu_van_goi_khuyen_mai
tu_van_goi_khuyen_mai
tu_van_goi_khuyen_mai
tu_van_goi_khuyen_mai
tu_van_goi_khuyen_mai
tu_van_goi_khuyen_mai
tu_van_goi_khuyen_mai
tu_van_goi_khuyen_mai
tu_van_goi_khuyen_mai
tu_van_goi_khuyen_mai
tu_van_goi_khuyen_mai
tu_van_goi_khuyen_mai
tu_van_goi_khuyen_mai
tu_van_goi_khuyen_mai
tu_van_goi_khuyen_mai
tu_van_goi_khuyen_mai
tu_van_goi_khuyen_mai
tu_van_goi_khuyen_mai
tu_van_goi_khuyen_mai
tu_van_goi_khuyen_mai
tu_van_goi_khuyen_mai
tu_van_goi_khuyen_mai
tu_van_goi_khuyen_mai
tu_van_goi_nhac
tu_van_goi_nhac
tu_van_goi_nhac
tu_van_goi_nhac
tu_van_goi_nhac
tu_van_goi_nhac
tu_van_goi_nhac
tu_van_goi_nhac
tu_van_goi_nhac
tu_van_goi_nhac
tu_van_goi_nhac
tu_van_goi_nhac
tu_van_goi_nhac
tu_van_goi_nhac
tu_van_goi_thoai
tu_van_goi_thoai
tu_van_goi_thoai
tu_van_goi_thoai
tu_van_goi_thoai
tu_van_goi_thoai
tu_van_goi_thoai
tu_van_goi_thoai
tu_van_goi_thoai
tu_van_goi_thoai
tu_van_goi_thoai
tu_van_goi_thoai
tu_van_goi_thoai
tu_van_goi_thoai
tu_van_goi_thoai
tu_van_goi_thoai
tu_van_goi_thoai
tu_van_goi_thoai
tu_van_goi_thoai
tu_van_goi_thoai
tu_van_goi_thoai
tu_van_goi_thoai
tu_van_goi_thoai
tu_van_goi_thoai
tu_van_goi_thoai
tu_van_goi_thoai
tu_van_goi_thoai
tu_van_goi_thoai
tu_van_goi_thoai
tu_van_goi_thoai
tu_van_goi_thoai
tu_van_goi_thoai
tu_van_goi_thoai
tu_van_goi_thoai
tu_van_goi_thoai
tu_van_goi_thoai
tu_van_goi_thoai
tu_van_goi_thoai
tu_van_goi_thoai
tu_van_goi_thoai
tu_van_goi_thoai
tu_van_goi_thoai
tu_van_goi_thoai
tu_van_goi_thoai
tu_van_goi_thoai
tu_van_goi_thoai
tu_van_goi_thoai
tu_van_goi_thoai
tu_van_goi_thoai
tu_van_goi_thoai
tu_van_goi_thoai
tu_van_goi_thoai
tu_van_goi_thoai
tu_van_goi_thoai
tu_van_goi_thoai
tu_van_goi_thoai
tu_van_goi_thoai
tu_van_goi_thoai
tu_van_goi_thoai
tu_van_goi_thoai
tu_van_goi_thoai
tu_van_goi_thoai
tu_van_goi_thoai
tu_van_goi_thoai
tu_van_goi_thoai
tu_van_goi_thoai
tu_van_goi_thoai
tu_van_goi_thoai
tu_van_goi_thoai
tu_van_goi_thoai
tu_van_goi_thoai
tu_van_goi_thoai
tu_van_goi_thoai
tu_van_goi_xem_phim
tu_van_goi_xem_phim
tu_van_goi_xem_phim
tu_van_goi_xem_phim
tu_van_goi_xem_phim
tu_van_goi_xem_phim
tu_van_goi_xem_phim
tu_van_goi_xem_phim
tu_van_goi_xem_phim
tu_van_goi_xem_phim
tu_van_goi_xem_phim
tu_van_goi_xem_phim
tu_van_goi_xem_phim
tu_van_goi_xem_phim
tu_van_goi_xem_phim
tu_van_goi_xem_phim
tu_van_goi_xem_phim
Ung_tien
Ung_tien
Ung_tien
Ung_tien
Ung_tien
Ung_tien
Ung_tien
Ung_tien
Ung_tien
Ung_tien
Ung_tien
ussd_kiem_tra_sim_4G
ussd_kiem_tra_sim_4G
ussd_kiem_tra_sim_4G
ussd_kiem_tra_sim_4G
ussd_kiem_tra_sim_4G
uu_dai_mnp
uu_dai_mnp
uu_dai_mnp
V100N
V100N
V100N
V100N
V100N
V100N
V100N
V100N
V100N
V100N
V120N
V120N
V120N
V120N
V120N
V120N
V120N
V120N
V120N
V120N
V120N
V120N
V150N
V150N
V150N
V150N
V150N
V150N
V150N
V150N
V150N
V150N
V150N
V150N
V150N
V20N
V20N
V20N
V20N
V20N
V20N
V20N
V20N
V30N
V30N
V30N
V30N
V30N
V30N
V30N
V30N
V50N
V50N
V50N
V50N
V50N
V50N
V50N
V70N
V70N
V70N
V70N
V70N
V70N
V70N
V70N
V70N
xac_dinh_ctkm
xac_dinh_ctkm
xac_dinh_ctkm
xac_dinh_ctkm
xac_dinh_ctkm
xac_dinh_ctkm
xac_dinh_ctkm
xac_dinh_ctkm
xac_dinh_ctkm
xac_dinh_ctkm
xac_dinh_ctkm
xac_dinh_ctkm
xac_dinh_ctkm
xac_dinh_ctkm
xac_dinh_ctkm
xac_dinh_ctkm
xac_dinh_ctkm
xac_dinh_ctkm
xac_dinh_ctkm
xac_dinh_ctkm
xac_dinh_ctkm
xac_dinh_ctkm
xac_dinh_ctkm
xac_dinh_ctkm
xac_dinh_ctkm
xac_dinh_ctkm
xac_dinh_ctkm
xac_dinh_ctkm
xac_dinh_ctkm
xac_dinh_ctkm
xac_dinh_ctkm
xac_dinh_ctkm
xac_dinh_ctkm
xac_dinh_ctkm
xac_dinh_ctkm
xac_dinh_ctkm
xac_dinh_ctkm
xac_dinh_ctkm
xac_dinh_lai_nhu_cau
xac_dinh_lai_nhu_cau
xac_dinh_lai_nhu_cau
xac_dinh_lai_nhu_cau
xac_dinh_lai_nhu_cau
xac_dinh_lai_nhu_cau
xac_dinh_lai_nhu_cau
xac_dinh_lai_nhu_cau
xac_dinh_lai_nhu_cau
xac_dinh_lai_nhu_cau
xac_dinh_lai_nhu_cau
xac_dinh_lai_nhu_cau
xac_dinh_lai_nhu_cau
xac_dinh_lai_nhu_cau
xac_dinh_lai_nhu_cau
xac_dinh_lai_nhu_cau
xac_dinh_lai_nhu_cau
xac_dinh_lai_nhu_cau
xac_dinh_lai_nhu_cau
xac_dinh_lai_nhu_cau
xac_dinh_lai_nhu_cau
xac_dinh_lai_nhu_cau
xac_dinh_lai_nhu_cau
xac_dinh_lai_nhu_cau
xac_dinh_lai_nhu_cau
xac_dinh_lai_nhu_cau
xac_dinh_lai_nhu_cau
xac_dinh_lai_nhu_cau
xac_dinh_lai_nhu_cau
xac_dinh_lai_nhu_cau
xac_dinh_lai_nhu_cau
xac_dinh_lai_nhu_cau
xac_dinh_lai_nhu_cau
xac_dinh_lai_nhu_cau
xac_dinh_lai_nhu_cau
xac_dinh_lai_nhu_cau
xac_dinh_lai_nhu_cau
xac_dinh_lai_nhu_cau
xac_dinh_lai_nhu_cau
xac_dinh_lai_nhu_cau
xac_dinh_lai_nhu_cau
xac_dinh_lai_nhu_cau
xac_dinh_lai_nhu_cau
xac_dinh_lai_nhu_cau
xac_dinh_lai_nhu_cau
xac_dinh_lai_nhu_cau
xac_dinh_lai_nhu_cau
xac_dinh_lai_nhu_cau
xac_dinh_lai_nhu_cau
xac_dinh_lai_nhu_cau
xac_dinh_lai_nhu_cau
xac_dinh_lai_nhu_cau
xac_dinh_lai_nhu_cau
xac_dinh_lai_nhu_cau
xac_dinh_lai_nhu_cau
xac_dinh_lai_nhu_cau
xac_dinh_lai_nhu_cau
xac_dinh_lai_nhu_cau
xac_dinh_lai_nhu_cau
xac_dinh_lai_nhu_cau
xac_dinh_lai_nhu_cau
xac_dinh_lai_nhu_cau
xac_dinh_lai_nhu_cau
xac_dinh_lai_nhu_cau
xac_dinh_lai_nhu_cau
xac_dinh_lai_nhu_cau
xac_dinh_lai_nhu_cau
xac_dinh_lai_nhu_cau
xac_dinh_lai_nhu_cau
xac_dinh_lai_nhu_cau
xac_dinh_lai_nhu_cau
xac_dinh_lai_nhu_cau
xac_dinh_lai_nhu_cau
xac_dinh_lai_nhu_cau
xac_dinh_lai_nhu_cau
xac_dinh_lai_nhu_cau
xac_dinh_lai_nhu_cau
xac_dinh_lai_nhu_cau
xac_dinh_lai_nhu_cau
xac_dinh_lai_nhu_cau
xac_dinh_lai_nhu_cau
xac_thuc_sdt
xd_sim_4G
xd_sim_4G
xd_sim_4G
xd_sim_4G
xd_sim_4G
Y5
Y5
Y5
YOUTUBE
YOUTUBE
YOUTUBE
YOUTUBE
YOUTUBE
YOUTUBE
YOUTUBE
YOUTUBE
YOUTUBE
Z70
Z70
Z70
Z70
Zone_Z70
Zone_Z70
Zone_Z70